{
  "images" : [
    {
      "filename" : "632044_I8600_8155_001_100_0000_Light--G-Timeless-40.jpg",
      "idiom" : "universal"
    }
  ],
  "info" : {
    "author" : "xcode",
    "version" : 1
  }
}
