{
  "images" : [
    {
      "filename" : "636447_ZAFKU_4101_001_100_0000_Light--Gucci-Liberty.jpg",
      "idiom" : "universal"
    }
  ],
  "info" : {
    "author" : "xcode",
    "version" : 1
  }
}
